srun: Job step aborted: Waiting up to 32 seconds for job step to finish.
slurmstepd: error: *** STEP 3465797.0 ON nid001214 CANCELLED AT 2023-05-05T18:00:36 DUE TO TIME LIMIT ***
slurmstepd: error: *** JOB 3465797 ON nid001214 CANCELLED AT 2023-05-05T18:00:36 DUE TO TIME LIMIT ***
