srun ./qcd1 -i input/qcd1t016.in -c D400t016n2 -a -noloc
srun: error: task 0 launch failed: Error configuring interconnect
srun: error: task 1 launch failed: Error configuring interconnect
srun: error: task 2 launch failed: Error configuring interconnect
srun: error: task 3 launch failed: Error configuring interconnect
srun: error: task 4 launch failed: Error configuring interconnect
srun: error: task 5 launch failed: Error configuring interconnect
srun: error: task 6 launch failed: Error configuring interconnect
srun: error: task 7 launch failed: Error configuring interconnect
srun: error: task 8 launch failed: Error configuring interconnect
srun: error: task 9 launch failed: Error configuring interconnect
srun: error: task 10 launch failed: Error configuring interconnect
srun: error: task 11 launch failed: Error configuring interconnect
srun: error: task 12 launch failed: Error configuring interconnect
srun: error: task 13 launch failed: Error configuring interconnect
srun: error: task 14 launch failed: Error configuring interconnect
srun: error: task 15 launch failed: Error configuring interconnect
srun: error: task 16 launch failed: Error configuring interconnect
srun: error: task 17 launch failed: Error configuring interconnect
srun: error: task 18 launch failed: Error configuring interconnect
srun: error: task 19 launch failed: Error configuring interconnect
srun: error: task 20 launch failed: Error configuring interconnect
srun: error: task 21 launch failed: Error configuring interconnect
srun: error: task 22 launch failed: Error configuring interconnect
srun: error: task 23 launch failed: Error configuring interconnect
srun: error: task 24 launch failed: Error configuring interconnect
srun: error: task 25 launch failed: Error configuring interconnect
srun: error: task 26 launch failed: Error configuring interconnect
srun: error: task 27 launch failed: Error configuring interconnect
srun: error: task 28 launch failed: Error configuring interconnect
srun: error: task 29 launch failed: Error configuring interconnect
srun: error: task 30 launch failed: Error configuring interconnect
srun: error: task 31 launch failed: Error configuring interconnect
srun: error: task 32 launch failed: Error configuring interconnect
srun: error: task 33 launch failed: Error configuring interconnect
srun: error: task 34 launch failed: Error configuring interconnect
srun: error: task 35 launch failed: Error configuring interconnect
srun: error: task 36 launch failed: Error configuring interconnect
srun: error: task 37 launch failed: Error configuring interconnect
srun: error: task 38 launch failed: Error configuring interconnect
srun: error: task 39 launch failed: Error configuring interconnect
srun: error: task 40 launch failed: Error configuring interconnect
srun: error: task 41 launch failed: Error configuring interconnect
srun: error: task 42 launch failed: Error configuring interconnect
srun: error: task 43 launch failed: Error configuring interconnect
srun: error: task 44 launch failed: Error configuring interconnect
srun: error: task 45 launch failed: Error configuring interconnect
srun: error: task 46 launch failed: Error configuring interconnect
srun: error: task 47 launch failed: Error configuring interconnect
srun: error: task 48 launch failed: Error configuring interconnect
srun: error: task 49 launch failed: Error configuring interconnect
srun: error: task 50 launch failed: Error configuring interconnect
srun: error: task 51 launch failed: Error configuring interconnect
srun: error: task 52 launch failed: Error configuring interconnect
srun: error: task 53 launch failed: Error configuring interconnect
srun: error: task 54 launch failed: Error configuring interconnect
srun: error: task 55 launch failed: Error configuring interconnect
srun: error: task 56 launch failed: Error configuring interconnect
srun: error: task 57 launch failed: Error configuring interconnect
srun: error: task 58 launch failed: Error configuring interconnect
srun: error: task 59 launch failed: Error configuring interconnect
srun: error: task 60 launch failed: Error configuring interconnect
srun: error: task 61 launch failed: Error configuring interconnect
srun: error: task 62 launch failed: Error configuring interconnect
srun: error: task 63 launch failed: Error configuring interconnect
srun: error: task 64 launch failed: Error configuring interconnect
srun: error: task 65 launch failed: Error configuring interconnect
srun: error: task 66 launch failed: Error configuring interconnect
srun: error: task 67 launch failed: Error configuring interconnect
srun: error: task 68 launch failed: Error configuring interconnect
srun: error: task 69 launch failed: Error configuring interconnect
srun: error: task 70 launch failed: Error configuring interconnect
srun: error: task 71 launch failed: Error configuring interconnect
srun: error: task 72 launch failed: Error configuring interconnect
srun: error: task 73 launch failed: Error configuring interconnect
srun: error: task 74 launch failed: Error configuring interconnect
srun: error: task 75 launch failed: Error configuring interconnect
srun: error: task 76 launch failed: Error configuring interconnect
srun: error: task 77 launch failed: Error configuring interconnect
srun: error: task 78 launch failed: Error configuring interconnect
srun: error: task 79 launch failed: Error configuring interconnect
srun: error: task 80 launch failed: Error configuring interconnect
srun: error: task 81 launch failed: Error configuring interconnect
srun: error: task 82 launch failed: Error configuring interconnect
srun: error: task 83 launch failed: Error configuring interconnect
srun: error: task 84 launch failed: Error configuring interconnect
srun: error: task 85 launch failed: Error configuring interconnect
srun: error: task 86 launch failed: Error configuring interconnect
srun: error: task 87 launch failed: Error configuring interconnect
srun: error: task 88 launch failed: Error configuring interconnect
srun: error: task 89 launch failed: Error configuring interconnect
srun: error: task 90 launch failed: Error configuring interconnect
srun: error: task 91 launch failed: Error configuring interconnect
srun: error: task 92 launch failed: Error configuring interconnect
srun: error: task 93 launch failed: Error configuring interconnect
srun: error: task 94 launch failed: Error configuring interconnect
srun: error: task 95 launch failed: Error configuring interconnect
srun: error: task 96 launch failed: Error configuring interconnect
srun: error: task 97 launch failed: Error configuring interconnect
srun: error: task 98 launch failed: Error configuring interconnect
srun: error: task 99 launch failed: Error configuring interconnect
srun: error: task 100 launch failed: Error configuring interconnect
srun: error: task 101 launch failed: Error configuring interconnect
srun: error: task 102 launch failed: Error configuring interconnect
srun: error: task 103 launch failed: Error configuring interconnect
srun: error: task 104 launch failed: Error configuring interconnect
srun: error: task 105 launch failed: Error configuring interconnect
srun: error: task 106 launch failed: Error configuring interconnect
srun: error: task 107 launch failed: Error configuring interconnect
srun: error: task 108 launch failed: Error configuring interconnect
srun: error: task 109 launch failed: Error configuring interconnect
srun: error: task 110 launch failed: Error configuring interconnect
srun: error: task 111 launch failed: Error configuring interconnect
srun: error: task 112 launch failed: Error configuring interconnect
srun: error: task 113 launch failed: Error configuring interconnect
srun: error: task 114 launch failed: Error configuring interconnect
srun: error: task 115 launch failed: Error configuring interconnect
srun: error: task 116 launch failed: Error configuring interconnect
srun: error: task 117 launch failed: Error configuring interconnect
srun: error: task 118 launch failed: Error configuring interconnect
srun: error: task 119 launch failed: Error configuring interconnect
srun: error: task 120 launch failed: Error configuring interconnect
srun: error: task 121 launch failed: Error configuring interconnect
srun: error: task 122 launch failed: Error configuring interconnect
srun: error: task 123 launch failed: Error configuring interconnect
srun: error: task 124 launch failed: Error configuring interconnect
srun: error: task 125 launch failed: Error configuring interconnect
srun: error: task 126 launch failed: Error configuring interconnect
srun: error: task 127 launch failed: Error configuring interconnect
srun: error: task 256 launch failed: Error configuring interconnect
srun: error: task 257 launch failed: Error configuring interconnect
srun: error: task 258 launch failed: Error configuring interconnect
srun: error: task 259 launch failed: Error configuring interconnect
srun: error: task 260 launch failed: Error configuring interconnect
srun: error: task 261 launch failed: Error configuring interconnect
srun: error: task 262 launch failed: Error configuring interconnect
srun: error: task 263 launch failed: Error configuring interconnect
srun: error: task 264 launch failed: Error configuring interconnect
srun: error: task 265 launch failed: Error configuring interconnect
srun: error: task 266 launch failed: Error configuring interconnect
srun: error: task 267 launch failed: Error configuring interconnect
srun: error: task 268 launch failed: Error configuring interconnect
srun: error: task 269 launch failed: Error configuring interconnect
srun: error: task 270 launch failed: Error configuring interconnect
srun: error: task 271 launch failed: Error configuring interconnect
srun: error: task 272 launch failed: Error configuring interconnect
srun: error: task 273 launch failed: Error configuring interconnect
srun: error: task 274 launch failed: Error configuring interconnect
srun: error: task 275 launch failed: Error configuring interconnect
srun: error: task 276 launch failed: Error configuring interconnect
srun: error: task 277 launch failed: Error configuring interconnect
srun: error: task 278 launch failed: Error configuring interconnect
srun: error: task 279 launch failed: Error configuring interconnect
srun: error: task 280 launch failed: Error configuring interconnect
srun: error: task 281 launch failed: Error configuring interconnect
srun: error: task 282 launch failed: Error configuring interconnect
srun: error: task 283 launch failed: Error configuring interconnect
srun: error: task 284 launch failed: Error configuring interconnect
srun: error: task 285 launch failed: Error configuring interconnect
srun: error: task 286 launch failed: Error configuring interconnect
srun: error: task 287 launch failed: Error configuring interconnect
srun: error: task 288 launch failed: Error configuring interconnect
srun: error: task 289 launch failed: Error configuring interconnect
srun: error: task 290 launch failed: Error configuring interconnect
srun: error: task 291 launch failed: Error configuring interconnect
srun: error: task 292 launch failed: Error configuring interconnect
srun: error: task 293 launch failed: Error configuring interconnect
srun: error: task 294 launch failed: Error configuring interconnect
srun: error: task 295 launch failed: Error configuring interconnect
srun: error: task 296 launch failed: Error configuring interconnect
srun: error: task 297 launch failed: Error configuring interconnect
srun: error: task 298 launch failed: Error configuring interconnect
srun: error: task 299 launch failed: Error configuring interconnect
srun: error: task 300 launch failed: Error configuring interconnect
srun: error: task 301 launch failed: Error configuring interconnect
srun: error: task 302 launch failed: Error configuring interconnect
srun: error: task 303 launch failed: Error configuring interconnect
srun: error: task 304 launch failed: Error configuring interconnect
srun: error: task 305 launch failed: Error configuring interconnect
srun: error: task 306 launch failed: Error configuring interconnect
srun: error: task 307 launch failed: Error configuring interconnect
srun: error: task 308 launch failed: Error configuring interconnect
srun: error: task 309 launch failed: Error configuring interconnect
srun: error: task 310 launch failed: Error configuring interconnect
srun: error: task 311 launch failed: Error configuring interconnect
srun: error: task 312 launch failed: Error configuring interconnect
srun: error: task 313 launch failed: Error configuring interconnect
srun: error: task 314 launch failed: Error configuring interconnect
srun: error: task 315 launch failed: Error configuring interconnect
srun: error: task 316 launch failed: Error configuring interconnect
srun: error: task 317 launch failed: Error configuring interconnect
srun: error: task 318 launch failed: Error configuring interconnect
srun: error: task 319 launch failed: Error configuring interconnect
srun: error: task 320 launch failed: Error configuring interconnect
srun: error: task 321 launch failed: Error configuring interconnect
srun: error: task 322 launch failed: Error configuring interconnect
srun: error: task 323 launch failed: Error configuring interconnect
srun: error: task 324 launch failed: Error configuring interconnect
srun: error: task 325 launch failed: Error configuring interconnect
srun: error: task 326 launch failed: Error configuring interconnect
srun: error: task 327 launch failed: Error configuring interconnect
srun: error: task 328 launch failed: Error configuring interconnect
srun: error: task 329 launch failed: Error configuring interconnect
srun: error: task 330 launch failed: Error configuring interconnect
srun: error: task 331 launch failed: Error configuring interconnect
srun: error: task 332 launch failed: Error configuring interconnect
srun: error: task 333 launch failed: Error configuring interconnect
srun: error: task 334 launch failed: Error configuring interconnect
srun: error: task 335 launch failed: Error configuring interconnect
srun: error: task 336 launch failed: Error configuring interconnect
srun: error: task 337 launch failed: Error configuring interconnect
srun: error: task 338 launch failed: Error configuring interconnect
srun: error: task 339 launch failed: Error configuring interconnect
srun: error: task 340 launch failed: Error configuring interconnect
srun: error: task 341 launch failed: Error configuring interconnect
srun: error: task 342 launch failed: Error configuring interconnect
srun: error: task 343 launch failed: Error configuring interconnect
srun: error: task 344 launch failed: Error configuring interconnect
srun: error: task 345 launch failed: Error configuring interconnect
srun: error: task 346 launch failed: Error configuring interconnect
srun: error: task 347 launch failed: Error configuring interconnect
srun: error: task 348 launch failed: Error configuring interconnect
srun: error: task 349 launch failed: Error configuring interconnect
srun: error: task 350 launch failed: Error configuring interconnect
srun: error: task 351 launch failed: Error configuring interconnect
srun: error: task 352 launch failed: Error configuring interconnect
srun: error: task 353 launch failed: Error configuring interconnect
srun: error: task 354 launch failed: Error configuring interconnect
srun: error: task 355 launch failed: Error configuring interconnect
srun: error: task 356 launch failed: Error configuring interconnect
srun: error: task 357 launch failed: Error configuring interconnect
srun: error: task 358 launch failed: Error configuring interconnect
srun: error: task 359 launch failed: Error configuring interconnect
srun: error: task 360 launch failed: Error configuring interconnect
srun: error: task 361 launch failed: Error configuring interconnect
srun: error: task 362 launch failed: Error configuring interconnect
srun: error: task 363 launch failed: Error configuring interconnect
srun: error: task 364 launch failed: Error configuring interconnect
srun: error: task 365 launch failed: Error configuring interconnect
srun: error: task 366 launch failed: Error configuring interconnect
srun: error: task 367 launch failed: Error configuring interconnect
srun: error: task 368 launch failed: Error configuring interconnect
srun: error: task 369 launch failed: Error configuring interconnect
srun: error: task 370 launch failed: Error configuring interconnect
srun: error: task 371 launch failed: Error configuring interconnect
srun: error: task 372 launch failed: Error configuring interconnect
srun: error: task 373 launch failed: Error configuring interconnect
srun: error: task 374 launch failed: Error configuring interconnect
srun: error: task 375 launch failed: Error configuring interconnect
srun: error: task 376 launch failed: Error configuring interconnect
srun: error: task 377 launch failed: Error configuring interconnect
srun: error: task 378 launch failed: Error configuring interconnect
srun: error: task 379 launch failed: Error configuring interconnect
srun: error: task 380 launch failed: Error configuring interconnect
srun: error: task 381 launch failed: Error configuring interconnect
srun: error: task 382 launch failed: Error configuring interconnect
srun: error: task 383 launch failed: Error configuring interconnect
srun: error: task 1024 launch failed: Error configuring interconnect
srun: error: task 1025 launch failed: Error configuring interconnect
srun: error: task 1026 launch failed: Error configuring interconnect
srun: error: task 1027 launch failed: Error configuring interconnect
srun: error: task 1028 launch failed: Error configuring interconnect
srun: error: task 1029 launch failed: Error configuring interconnect
srun: error: task 1030 launch failed: Error configuring interconnect
srun: error: task 1031 launch failed: Error configuring interconnect
srun: error: task 1032 launch failed: Error configuring interconnect
srun: error: task 1033 launch failed: Error configuring interconnect
srun: error: task 1034 launch failed: Error configuring interconnect
srun: error: task 1035 launch failed: Error configuring interconnect
srun: error: task 1036 launch failed: Error configuring interconnect
srun: error: task 1037 launch failed: Error configuring interconnect
srun: error: task 1038 launch failed: Error configuring interconnect
srun: error: task 1039 launch failed: Error configuring interconnect
srun: error: task 1040 launch failed: Error configuring interconnect
srun: error: task 1041 launch failed: Error configuring interconnect
srun: error: task 1042 launch failed: Error configuring interconnect
srun: error: task 1043 launch failed: Error configuring interconnect
srun: error: task 1044 launch failed: Error configuring interconnect
srun: error: task 1045 launch failed: Error configuring interconnect
srun: error: task 1046 launch failed: Error configuring interconnect
srun: error: task 1047 launch failed: Error configuring interconnect
srun: error: task 1048 launch failed: Error configuring interconnect
srun: error: task 1049 launch failed: Error configuring interconnect
srun: error: task 1050 launch failed: Error configuring interconnect
srun: error: task 1051 launch failed: Error configuring interconnect
srun: error: task 1052 launch failed: Error configuring interconnect
srun: error: task 1053 launch failed: Error configuring interconnect
srun: error: task 1054 launch failed: Error configuring interconnect
srun: error: task 1055 launch failed: Error configuring interconnect
srun: error: task 1056 launch failed: Error configuring interconnect
srun: error: task 1057 launch failed: Error configuring interconnect
srun: error: task 1058 launch failed: Error configuring interconnect
srun: error: task 1059 launch failed: Error configuring interconnect
srun: error: task 1060 launch failed: Error configuring interconnect
srun: error: task 1061 launch failed: Error configuring interconnect
srun: error: task 1062 launch failed: Error configuring interconnect
srun: error: task 1063 launch failed: Error configuring interconnect
srun: error: task 1064 launch failed: Error configuring interconnect
srun: error: task 1065 launch failed: Error configuring interconnect
srun: error: task 1066 launch failed: Error configuring interconnect
srun: error: task 1067 launch failed: Error configuring interconnect
srun: error: task 1068 launch failed: Error configuring interconnect
srun: error: task 1069 launch failed: Error configuring interconnect
srun: error: task 1070 launch failed: Error configuring interconnect
srun: error: task 1071 launch failed: Error configuring interconnect
srun: error: task 1072 launch failed: Error configuring interconnect
srun: error: task 1073 launch failed: Error configuring interconnect
srun: error: task 1074 launch failed: Error configuring interconnect
srun: error: task 1075 launch failed: Error configuring interconnect
srun: error: task 1076 launch failed: Error configuring interconnect
srun: error: task 1077 launch failed: Error configuring interconnect
srun: error: task 1078 launch failed: Error configuring interconnect
srun: error: task 1079 launch failed: Error configuring interconnect
srun: error: task 1080 launch failed: Error configuring interconnect
srun: error: task 1081 launch failed: Error configuring interconnect
srun: error: task 1082 launch failed: Error configuring interconnect
srun: error: task 1083 launch failed: Error configuring interconnect
srun: error: task 1084 launch failed: Error configuring interconnect
srun: error: task 1085 launch failed: Error configuring interconnect
srun: error: task 1086 launch failed: Error configuring interconnect
srun: error: task 1087 launch failed: Error configuring interconnect
srun: error: task 1088 launch failed: Error configuring interconnect
srun: error: task 1089 launch failed: Error configuring interconnect
srun: error: task 1090 launch failed: Error configuring interconnect
srun: error: task 1091 launch failed: Error configuring interconnect
srun: error: task 1092 launch failed: Error configuring interconnect
srun: error: task 1093 launch failed: Error configuring interconnect
srun: error: task 1094 launch failed: Error configuring interconnect
srun: error: task 1095 launch failed: Error configuring interconnect
srun: error: task 1096 launch failed: Error configuring interconnect
srun: error: task 1097 launch failed: Error configuring interconnect
srun: error: task 1098 launch failed: Error configuring interconnect
srun: error: task 1099 launch failed: Error configuring interconnect
srun: error: task 1100 launch failed: Error configuring interconnect
srun: error: task 1101 launch failed: Error configuring interconnect
srun: error: task 1102 launch failed: Error configuring interconnect
srun: error: task 1103 launch failed: Error configuring interconnect
srun: error: task 1104 launch failed: Error configuring interconnect
srun: error: task 1105 launch failed: Error configuring interconnect
srun: error: task 1106 launch failed: Error configuring interconnect
srun: error: task 1107 launch failed: Error configuring interconnect
srun: error: task 1108 launch failed: Error configuring interconnect
srun: error: task 1109 launch failed: Error configuring interconnect
srun: error: task 1110 launch failed: Error configuring interconnect
srun: error: task 1111 launch failed: Error configuring interconnect
srun: error: task 1112 launch failed: Error configuring interconnect
srun: error: task 1113 launch failed: Error configuring interconnect
srun: error: task 1114 launch failed: Error configuring interconnect
srun: error: task 1115 launch failed: Error configuring interconnect
srun: error: task 1116 launch failed: Error configuring interconnect
srun: error: task 1117 launch failed: Error configuring interconnect
srun: error: task 1118 launch failed: Error configuring interconnect
srun: error: task 1119 launch failed: Error configuring interconnect
srun: error: task 1120 launch failed: Error configuring interconnect
srun: error: task 1121 launch failed: Error configuring interconnect
srun: error: task 1122 launch failed: Error configuring interconnect
srun: error: task 1123 launch failed: Error configuring interconnect
srun: error: task 1124 launch failed: Error configuring interconnect
srun: error: task 1125 launch failed: Error configuring interconnect
srun: error: task 1126 launch failed: Error configuring interconnect
srun: error: task 1127 launch failed: Error configuring interconnect
srun: error: task 1128 launch failed: Error configuring interconnect
srun: error: task 1129 launch failed: Error configuring interconnect
srun: error: task 1130 launch failed: Error configuring interconnect
srun: error: task 1131 launch failed: Error configuring interconnect
srun: error: task 1132 launch failed: Error configuring interconnect
srun: error: task 1133 launch failed: Error configuring interconnect
srun: error: task 1134 launch failed: Error configuring interconnect
srun: error: task 1135 launch failed: Error configuring interconnect
srun: error: task 1136 launch failed: Error configuring interconnect
srun: error: task 1137 launch failed: Error configuring interconnect
srun: error: task 1138 launch failed: Error configuring interconnect
srun: error: task 1139 launch failed: Error configuring interconnect
srun: error: task 1140 launch failed: Error configuring interconnect
srun: error: task 1141 launch failed: Error configuring interconnect
srun: error: task 1142 launch failed: Error configuring interconnect
srun: error: task 1143 launch failed: Error configuring interconnect
srun: error: task 1144 launch failed: Error configuring interconnect
srun: error: task 1145 launch failed: Error configuring interconnect
srun: error: task 1146 launch failed: Error configuring interconnect
srun: error: task 1147 launch failed: Error configuring interconnect
srun: error: task 1148 launch failed: Error configuring interconnect
srun: error: task 1149 launch failed: Error configuring interconnect
srun: error: task 1150 launch failed: Error configuring interconnect
srun: error: task 1151 launch failed: Error configuring interconnect
srun: error: task 512 launch failed: Error configuring interconnect
srun: error: task 513 launch failed: Error configuring interconnect
srun: error: task 514 launch failed: Error configuring interconnect
srun: error: task 515 launch failed: Error configuring interconnect
srun: error: task 516 launch failed: Error configuring interconnect
srun: error: task 517 launch failed: Error configuring interconnect
srun: error: task 518 launch failed: Error configuring interconnect
srun: error: task 519 launch failed: Error configuring interconnect
srun: error: task 520 launch failed: Error configuring interconnect
srun: error: task 521 launch failed: Error configuring interconnect
srun: error: task 522 launch failed: Error configuring interconnect
srun: error: task 523 launch failed: Error configuring interconnect
srun: error: task 524 launch failed: Error configuring interconnect
srun: error: task 525 launch failed: Error configuring interconnect
srun: error: task 526 launch failed: Error configuring interconnect
srun: error: task 527 launch failed: Error configuring interconnect
srun: error: task 528 launch failed: Error configuring interconnect
srun: error: task 529 launch failed: Error configuring interconnect
srun: error: task 530 launch failed: Error configuring interconnect
srun: error: task 531 launch failed: Error configuring interconnect
srun: error: task 532 launch failed: Error configuring interconnect
srun: error: task 533 launch failed: Error configuring interconnect
srun: error: task 534 launch failed: Error configuring interconnect
srun: error: task 535 launch failed: Error configuring interconnect
srun: error: task 536 launch failed: Error configuring interconnect
srun: error: task 537 launch failed: Error configuring interconnect
srun: error: task 538 launch failed: Error configuring interconnect
srun: error: task 539 launch failed: Error configuring interconnect
srun: error: task 540 launch failed: Error configuring interconnect
srun: error: task 541 launch failed: Error configuring interconnect
srun: error: task 542 launch failed: Error configuring interconnect
srun: error: task 543 launch failed: Error configuring interconnect
srun: error: task 544 launch failed: Error configuring interconnect
srun: error: task 545 launch failed: Error configuring interconnect
srun: error: task 546 launch failed: Error configuring interconnect
srun: error: task 547 launch failed: Error configuring interconnect
srun: error: task 548 launch failed: Error configuring interconnect
srun: error: task 549 launch failed: Error configuring interconnect
srun: error: task 550 launch failed: Error configuring interconnect
srun: error: task 551 launch failed: Error configuring interconnect
srun: error: task 552 launch failed: Error configuring interconnect
srun: error: task 553 launch failed: Error configuring interconnect
srun: error: task 554 launch failed: Error configuring interconnect
srun: error: task 555 launch failed: Error configuring interconnect
srun: error: task 556 launch failed: Error configuring interconnect
srun: error: task 557 launch failed: Error configuring interconnect
srun: error: task 558 launch failed: Error configuring interconnect
srun: error: task 559 launch failed: Error configuring interconnect
srun: error: task 560 launch failed: Error configuring interconnect
srun: error: task 561 launch failed: Error configuring interconnect
srun: error: task 562 launch failed: Error configuring interconnect
srun: error: task 563 launch failed: Error configuring interconnect
srun: error: task 564 launch failed: Error configuring interconnect
srun: error: task 565 launch failed: Error configuring interconnect
srun: error: task 566 launch failed: Error configuring interconnect
srun: error: task 567 launch failed: Error configuring interconnect
srun: error: task 568 launch failed: Error configuring interconnect
srun: error: task 569 launch failed: Error configuring interconnect
srun: error: task 570 launch failed: Error configuring interconnect
srun: error: task 571 launch failed: Error configuring interconnect
srun: error: task 572 launch failed: Error configuring interconnect
srun: error: task 573 launch failed: Error configuring interconnect
srun: error: task 574 launch failed: Error configuring interconnect
srun: error: task 575 launch failed: Error configuring interconnect
srun: error: task 576 launch failed: Error configuring interconnect
srun: error: task 577 launch failed: Error configuring interconnect
srun: error: task 578 launch failed: Error configuring interconnect
srun: error: task 579 launch failed: Error configuring interconnect
srun: error: task 580 launch failed: Error configuring interconnect
srun: error: task 581 launch failed: Error configuring interconnect
srun: error: task 582 launch failed: Error configuring interconnect
srun: error: task 583 launch failed: Error configuring interconnect
srun: error: task 584 launch failed: Error configuring interconnect
srun: error: task 585 launch failed: Error configuring interconnect
srun: error: task 586 launch failed: Error configuring interconnect
srun: error: task 587 launch failed: Error configuring interconnect
srun: error: task 588 launch failed: Error configuring interconnect
srun: error: task 589 launch failed: Error configuring interconnect
srun: error: task 590 launch failed: Error configuring interconnect
srun: error: task 591 launch failed: Error configuring interconnect
srun: error: task 592 launch failed: Error configuring interconnect
srun: error: task 593 launch failed: Error configuring interconnect
srun: error: task 594 launch failed: Error configuring interconnect
srun: error: task 595 launch failed: Error configuring interconnect
srun: error: task 596 launch failed: Error configuring interconnect
srun: error: task 597 launch failed: Error configuring interconnect
srun: error: task 598 launch failed: Error configuring interconnect
srun: error: task 599 launch failed: Error configuring interconnect
srun: error: task 600 launch failed: Error configuring interconnect
srun: error: task 601 launch failed: Error configuring interconnect
srun: error: task 602 launch failed: Error configuring interconnect
srun: error: task 603 launch failed: Error configuring interconnect
srun: error: task 604 launch failed: Error configuring interconnect
srun: error: task 605 launch failed: Error configuring interconnect
srun: error: task 606 launch failed: Error configuring interconnect
srun: error: task 607 launch failed: Error configuring interconnect
srun: error: task 608 launch failed: Error configuring interconnect
srun: error: task 609 launch failed: Error configuring interconnect
srun: error: task 610 launch failed: Error configuring interconnect
srun: error: task 611 launch failed: Error configuring interconnect
srun: error: task 612 launch failed: Error configuring interconnect
srun: error: task 613 launch failed: Error configuring interconnect
srun: error: task 614 launch failed: Error configuring interconnect
srun: error: task 615 launch failed: Error configuring interconnect
srun: error: task 616 launch failed: Error configuring interconnect
srun: error: task 617 launch failed: Error configuring interconnect
srun: error: task 618 launch failed: Error configuring interconnect
srun: error: task 619 launch failed: Error configuring interconnect
srun: error: task 620 launch failed: Error configuring interconnect
srun: error: task 621 launch failed: Error configuring interconnect
srun: error: task 622 launch failed: Error configuring interconnect
srun: error: task 623 launch failed: Error configuring interconnect
srun: error: task 624 launch failed: Error configuring interconnect
srun: error: task 625 launch failed: Error configuring interconnect
srun: error: task 626 launch failed: Error configuring interconnect
srun: error: task 627 launch failed: Error configuring interconnect
srun: error: task 628 launch failed: Error configuring interconnect
srun: error: task 629 launch failed: Error configuring interconnect
srun: error: task 630 launch failed: Error configuring interconnect
srun: error: task 631 launch failed: Error configuring interconnect
srun: error: task 632 launch failed: Error configuring interconnect
srun: error: task 633 launch failed: Error configuring interconnect
srun: error: task 634 launch failed: Error configuring interconnect
srun: error: task 635 launch failed: Error configuring interconnect
srun: error: task 636 launch failed: Error configuring interconnect
srun: error: task 637 launch failed: Error configuring interconnect
srun: error: task 638 launch failed: Error configuring interconnect
srun: error: task 639 launch failed: Error configuring interconnect
srun: error: task 384 launch failed: Error configuring interconnect
srun: error: task 385 launch failed: Error configuring interconnect
srun: error: task 386 launch failed: Error configuring interconnect
srun: error: task 387 launch failed: Error configuring interconnect
srun: error: task 388 launch failed: Error configuring interconnect
srun: error: task 389 launch failed: Error configuring interconnect
srun: error: task 390 launch failed: Error configuring interconnect
srun: error: task 391 launch failed: Error configuring interconnect
srun: error: task 392 launch failed: Error configuring interconnect
srun: error: task 393 launch failed: Error configuring interconnect
srun: error: task 394 launch failed: Error configuring interconnect
srun: error: task 395 launch failed: Error configuring interconnect
srun: error: task 396 launch failed: Error configuring interconnect
srun: error: task 397 launch failed: Error configuring interconnect
srun: error: task 398 launch failed: Error configuring interconnect
srun: error: task 399 launch failed: Error configuring interconnect
srun: error: task 400 launch failed: Error configuring interconnect
srun: error: task 401 launch failed: Error configuring interconnect
srun: error: task 402 launch failed: Error configuring interconnect
srun: error: task 403 launch failed: Error configuring interconnect
srun: error: task 404 launch failed: Error configuring interconnect
srun: error: task 405 launch failed: Error configuring interconnect
srun: error: task 406 launch failed: Error configuring interconnect
srun: error: task 407 launch failed: Error configuring interconnect
srun: error: task 408 launch failed: Error configuring interconnect
srun: error: task 409 launch failed: Error configuring interconnect
srun: error: task 410 launch failed: Error configuring interconnect
srun: error: task 411 launch failed: Error configuring interconnect
srun: error: task 412 launch failed: Error configuring interconnect
srun: error: task 413 launch failed: Error configuring interconnect
srun: error: task 414 launch failed: Error configuring interconnect
srun: error: task 415 launch failed: Error configuring interconnect
srun: error: task 416 launch failed: Error configuring interconnect
srun: error: task 417 launch failed: Error configuring interconnect
srun: error: task 418 launch failed: Error configuring interconnect
srun: error: task 419 launch failed: Error configuring interconnect
srun: error: task 420 launch failed: Error configuring interconnect
srun: error: task 421 launch failed: Error configuring interconnect
srun: error: task 422 launch failed: Error configuring interconnect
srun: error: task 423 launch failed: Error configuring interconnect
srun: error: task 424 launch failed: Error configuring interconnect
srun: error: task 425 launch failed: Error configuring interconnect
srun: error: task 426 launch failed: Error configuring interconnect
srun: error: task 427 launch failed: Error configuring interconnect
srun: error: task 428 launch failed: Error configuring interconnect
srun: error: task 429 launch failed: Error configuring interconnect
srun: error: task 430 launch failed: Error configuring interconnect
srun: error: task 431 launch failed: Error configuring interconnect
srun: error: task 432 launch failed: Error configuring interconnect
srun: error: task 433 launch failed: Error configuring interconnect
srun: error: task 434 launch failed: Error configuring interconnect
srun: error: task 435 launch failed: Error configuring interconnect
srun: error: task 436 launch failed: Error configuring interconnect
srun: error: task 437 launch failed: Error configuring interconnect
srun: error: task 438 launch failed: Error configuring interconnect
srun: error: task 439 launch failed: Error configuring interconnect
srun: error: task 440 launch failed: Error configuring interconnect
srun: error: task 441 launch failed: Error configuring interconnect
srun: error: task 442 launch failed: Error configuring interconnect
srun: error: task 443 launch failed: Error configuring interconnect
srun: error: task 444 launch failed: Error configuring interconnect
srun: error: task 445 launch failed: Error configuring interconnect
srun: error: task 446 launch failed: Error configuring interconnect
srun: error: task 447 launch failed: Error configuring interconnect
srun: error: task 448 launch failed: Error configuring interconnect
srun: error: task 449 launch failed: Error configuring interconnect
srun: error: task 450 launch failed: Error configuring interconnect
srun: error: task 451 launch failed: Error configuring interconnect
srun: error: task 452 launch failed: Error configuring interconnect
srun: error: task 453 launch failed: Error configuring interconnect
srun: error: task 454 launch failed: Error configuring interconnect
srun: error: task 455 launch failed: Error configuring interconnect
srun: error: task 456 launch failed: Error configuring interconnect
srun: error: task 457 launch failed: Error configuring interconnect
srun: error: task 458 launch failed: Error configuring interconnect
srun: error: task 459 launch failed: Error configuring interconnect
srun: error: task 460 launch failed: Error configuring interconnect
srun: error: task 461 launch failed: Error configuring interconnect
srun: error: task 462 launch failed: Error configuring interconnect
srun: error: task 463 launch failed: Error configuring interconnect
srun: error: task 464 launch failed: Error configuring interconnect
srun: error: task 465 launch failed: Error configuring interconnect
srun: error: task 466 launch failed: Error configuring interconnect
srun: error: task 467 launch failed: Error configuring interconnect
srun: error: task 468 launch failed: Error configuring interconnect
srun: error: task 469 launch failed: Error configuring interconnect
srun: error: task 470 launch failed: Error configuring interconnect
srun: error: task 471 launch failed: Error configuring interconnect
srun: error: task 472 launch failed: Error configuring interconnect
srun: error: task 473 launch failed: Error configuring interconnect
srun: error: task 474 launch failed: Error configuring interconnect
srun: error: task 475 launch failed: Error configuring interconnect
srun: error: task 476 launch failed: Error configuring interconnect
srun: error: task 477 launch failed: Error configuring interconnect
srun: error: task 478 launch failed: Error configuring interconnect
srun: error: task 479 launch failed: Error configuring interconnect
srun: error: task 480 launch failed: Error configuring interconnect
srun: error: task 481 launch failed: Error configuring interconnect
srun: error: task 482 launch failed: Error configuring interconnect
srun: error: task 483 launch failed: Error configuring interconnect
srun: error: task 484 launch failed: Error configuring interconnect
srun: error: task 485 launch failed: Error configuring interconnect
srun: error: task 486 launch failed: Error configuring interconnect
srun: error: task 487 launch failed: Error configuring interconnect
srun: error: task 488 launch failed: Error configuring interconnect
srun: error: task 489 launch failed: Error configuring interconnect
srun: error: task 490 launch failed: Error configuring interconnect
srun: error: task 491 launch failed: Error configuring interconnect
srun: error: task 492 launch failed: Error configuring interconnect
srun: error: task 493 launch failed: Error configuring interconnect
srun: error: task 494 launch failed: Error configuring interconnect
srun: error: task 495 launch failed: Error configuring interconnect
srun: error: task 496 launch failed: Error configuring interconnect
srun: error: task 497 launch failed: Error configuring interconnect
srun: error: task 498 launch failed: Error configuring interconnect
srun: error: task 499 launch failed: Error configuring interconnect
srun: error: task 500 launch failed: Error configuring interconnect
srun: error: task 501 launch failed: Error configuring interconnect
srun: error: task 502 launch failed: Error configuring interconnect
srun: error: task 503 launch failed: Error configuring interconnect
srun: error: task 504 launch failed: Error configuring interconnect
srun: error: task 505 launch failed: Error configuring interconnect
srun: error: task 506 launch failed: Error configuring interconnect
srun: error: task 507 launch failed: Error configuring interconnect
srun: error: task 508 launch failed: Error configuring interconnect
srun: error: task 509 launch failed: Error configuring interconnect
srun: error: task 510 launch failed: Error configuring interconnect
srun: error: task 511 launch failed: Error configuring interconnect
srun: error: task 640 launch failed: Error configuring interconnect
srun: error: task 641 launch failed: Error configuring interconnect
srun: error: task 642 launch failed: Error configuring interconnect
srun: error: task 643 launch failed: Error configuring interconnect
srun: error: task 644 launch failed: Error configuring interconnect
srun: error: task 645 launch failed: Error configuring interconnect
srun: error: task 646 launch failed: Error configuring interconnect
srun: error: task 647 launch failed: Error configuring interconnect
srun: error: task 648 launch failed: Error configuring interconnect
srun: error: task 649 launch failed: Error configuring interconnect
srun: error: task 650 launch failed: Error configuring interconnect
srun: error: task 651 launch failed: Error configuring interconnect
srun: error: task 652 launch failed: Error configuring interconnect
srun: error: task 653 launch failed: Error configuring interconnect
srun: error: task 654 launch failed: Error configuring interconnect
srun: error: task 655 launch failed: Error configuring interconnect
srun: error: task 656 launch failed: Error configuring interconnect
srun: error: task 657 launch failed: Error configuring interconnect
srun: error: task 658 launch failed: Error configuring interconnect
srun: error: task 659 launch failed: Error configuring interconnect
srun: error: task 660 launch failed: Error configuring interconnect
srun: error: task 661 launch failed: Error configuring interconnect
srun: error: task 662 launch failed: Error configuring interconnect
srun: error: task 663 launch failed: Error configuring interconnect
srun: error: task 664 launch failed: Error configuring interconnect
srun: error: task 665 launch failed: Error configuring interconnect
srun: error: task 666 launch failed: Error configuring interconnect
srun: error: task 667 launch failed: Error configuring interconnect
srun: error: task 668 launch failed: Error configuring interconnect
srun: error: task 669 launch failed: Error configuring interconnect
srun: error: task 670 launch failed: Error configuring interconnect
srun: error: task 671 launch failed: Error configuring interconnect
srun: error: task 672 launch failed: Error configuring interconnect
srun: error: task 673 launch failed: Error configuring interconnect
srun: error: task 674 launch failed: Error configuring interconnect
srun: error: task 675 launch failed: Error configuring interconnect
srun: error: task 676 launch failed: Error configuring interconnect
srun: error: task 677 launch failed: Error configuring interconnect
srun: error: task 678 launch failed: Error configuring interconnect
srun: error: task 679 launch failed: Error configuring interconnect
srun: error: task 680 launch failed: Error configuring interconnect
srun: error: task 681 launch failed: Error configuring interconnect
srun: error: task 682 launch failed: Error configuring interconnect
srun: error: task 683 launch failed: Error configuring interconnect
srun: error: task 684 launch failed: Error configuring interconnect
srun: error: task 685 launch failed: Error configuring interconnect
srun: error: task 686 launch failed: Error configuring interconnect
srun: error: task 687 launch failed: Error configuring interconnect
srun: error: task 688 launch failed: Error configuring interconnect
srun: error: task 689 launch failed: Error configuring interconnect
srun: error: task 690 launch failed: Error configuring interconnect
srun: error: task 691 launch failed: Error configuring interconnect
srun: error: task 692 launch failed: Error configuring interconnect
srun: error: task 693 launch failed: Error configuring interconnect
srun: error: task 694 launch failed: Error configuring interconnect
srun: error: task 695 launch failed: Error configuring interconnect
srun: error: task 696 launch failed: Error configuring interconnect
srun: error: task 697 launch failed: Error configuring interconnect
srun: error: task 698 launch failed: Error configuring interconnect
srun: error: task 699 launch failed: Error configuring interconnect
srun: error: task 700 launch failed: Error configuring interconnect
srun: error: task 701 launch failed: Error configuring interconnect
srun: error: task 702 launch failed: Error configuring interconnect
srun: error: task 703 launch failed: Error configuring interconnect
srun: error: task 704 launch failed: Error configuring interconnect
srun: error: task 705 launch failed: Error configuring interconnect
srun: error: task 706 launch failed: Error configuring interconnect
srun: error: task 707 launch failed: Error configuring interconnect
srun: error: task 708 launch failed: Error configuring interconnect
srun: error: task 709 launch failed: Error configuring interconnect
srun: error: task 710 launch failed: Error configuring interconnect
srun: error: task 711 launch failed: Error configuring interconnect
srun: error: task 712 launch failed: Error configuring interconnect
srun: error: task 713 launch failed: Error configuring interconnect
srun: error: task 714 launch failed: Error configuring interconnect
srun: error: task 715 launch failed: Error configuring interconnect
srun: error: task 716 launch failed: Error configuring interconnect
srun: error: task 717 launch failed: Error configuring interconnect
srun: error: task 718 launch failed: Error configuring interconnect
srun: error: task 719 launch failed: Error configuring interconnect
srun: error: task 720 launch failed: Error configuring interconnect
srun: error: task 721 launch failed: Error configuring interconnect
srun: error: task 722 launch failed: Error configuring interconnect
srun: error: task 723 launch failed: Error configuring interconnect
srun: error: task 724 launch failed: Error configuring interconnect
srun: error: task 725 launch failed: Error configuring interconnect
srun: error: task 726 launch failed: Error configuring interconnect
srun: error: task 727 launch failed: Error configuring interconnect
srun: error: task 728 launch failed: Error configuring interconnect
srun: error: task 729 launch failed: Error configuring interconnect
srun: error: task 730 launch failed: Error configuring interconnect
srun: error: task 731 launch failed: Error configuring interconnect
srun: error: task 732 launch failed: Error configuring interconnect
srun: error: task 733 launch failed: Error configuring interconnect
srun: error: task 734 launch failed: Error configuring interconnect
srun: error: task 735 launch failed: Error configuring interconnect
srun: error: task 736 launch failed: Error configuring interconnect
srun: error: task 737 launch failed: Error configuring interconnect
srun: error: task 738 launch failed: Error configuring interconnect
srun: error: task 739 launch failed: Error configuring interconnect
srun: error: task 740 launch failed: Error configuring interconnect
srun: error: task 741 launch failed: Error configuring interconnect
srun: error: task 742 launch failed: Error configuring interconnect
srun: error: task 743 launch failed: Error configuring interconnect
srun: error: task 744 launch failed: Error configuring interconnect
srun: error: task 745 launch failed: Error configuring interconnect
srun: error: task 746 launch failed: Error configuring interconnect
srun: error: task 747 launch failed: Error configuring interconnect
srun: error: task 748 launch failed: Error configuring interconnect
srun: error: task 749 launch failed: Error configuring interconnect
srun: error: task 750 launch failed: Error configuring interconnect
srun: error: task 751 launch failed: Error configuring interconnect
srun: error: task 752 launch failed: Error configuring interconnect
srun: error: task 753 launch failed: Error configuring interconnect
srun: error: task 754 launch failed: Error configuring interconnect
srun: error: task 755 launch failed: Error configuring interconnect
srun: error: task 756 launch failed: Error configuring interconnect
srun: error: task 757 launch failed: Error configuring interconnect
srun: error: task 758 launch failed: Error configuring interconnect
srun: error: task 759 launch failed: Error configuring interconnect
srun: error: task 760 launch failed: Error configuring interconnect
srun: error: task 761 launch failed: Error configuring interconnect
srun: error: task 762 launch failed: Error configuring interconnect
srun: error: task 763 launch failed: Error configuring interconnect
srun: error: task 764 launch failed: Error configuring interconnect
srun: error: task 765 launch failed: Error configuring interconnect
srun: error: task 766 launch failed: Error configuring interconnect
srun: error: task 767 launch failed: Error configuring interconnect
srun: error: task 128 launch failed: Error configuring interconnect
srun: error: task 129 launch failed: Error configuring interconnect
srun: error: task 130 launch failed: Error configuring interconnect
srun: error: task 131 launch failed: Error configuring interconnect
srun: error: task 132 launch failed: Error configuring interconnect
srun: error: task 133 launch failed: Error configuring interconnect
srun: error: task 134 launch failed: Error configuring interconnect
srun: error: task 135 launch failed: Error configuring interconnect
srun: error: task 136 launch failed: Error configuring interconnect
srun: error: task 137 launch failed: Error configuring interconnect
srun: error: task 138 launch failed: Error configuring interconnect
srun: error: task 139 launch failed: Error configuring interconnect
srun: error: task 140 launch failed: Error configuring interconnect
srun: error: task 141 launch failed: Error configuring interconnect
srun: error: task 142 launch failed: Error configuring interconnect
srun: error: task 143 launch failed: Error configuring interconnect
srun: error: task 144 launch failed: Error configuring interconnect
srun: error: task 145 launch failed: Error configuring interconnect
srun: error: task 146 launch failed: Error configuring interconnect
srun: error: task 147 launch failed: Error configuring interconnect
srun: error: task 148 launch failed: Error configuring interconnect
srun: error: task 149 launch failed: Error configuring interconnect
srun: error: task 150 launch failed: Error configuring interconnect
srun: error: task 151 launch failed: Error configuring interconnect
srun: error: task 152 launch failed: Error configuring interconnect
srun: error: task 153 launch failed: Error configuring interconnect
srun: error: task 154 launch failed: Error configuring interconnect
srun: error: task 155 launch failed: Error configuring interconnect
srun: error: task 156 launch failed: Error configuring interconnect
srun: error: task 157 launch failed: Error configuring interconnect
srun: error: task 158 launch failed: Error configuring interconnect
srun: error: task 159 launch failed: Error configuring interconnect
srun: error: task 160 launch failed: Error configuring interconnect
srun: error: task 161 launch failed: Error configuring interconnect
srun: error: task 162 launch failed: Error configuring interconnect
srun: error: task 163 launch failed: Error configuring interconnect
srun: error: task 164 launch failed: Error configuring interconnect
srun: error: task 165 launch failed: Error configuring interconnect
srun: error: task 166 launch failed: Error configuring interconnect
srun: error: task 167 launch failed: Error configuring interconnect
srun: error: task 168 launch failed: Error configuring interconnect
srun: error: task 169 launch failed: Error configuring interconnect
srun: error: task 170 launch failed: Error configuring interconnect
srun: error: task 171 launch failed: Error configuring interconnect
srun: error: task 172 launch failed: Error configuring interconnect
srun: error: task 173 launch failed: Error configuring interconnect
srun: error: task 174 launch failed: Error configuring interconnect
srun: error: task 175 launch failed: Error configuring interconnect
srun: error: task 176 launch failed: Error configuring interconnect
srun: error: task 177 launch failed: Error configuring interconnect
srun: error: task 178 launch failed: Error configuring interconnect
srun: error: task 179 launch failed: Error configuring interconnect
srun: error: task 180 launch failed: Error configuring interconnect
srun: error: task 181 launch failed: Error configuring interconnect
srun: error: task 182 launch failed: Error configuring interconnect
srun: error: task 183 launch failed: Error configuring interconnect
srun: error: task 184 launch failed: Error configuring interconnect
srun: error: task 185 launch failed: Error configuring interconnect
srun: error: task 186 launch failed: Error configuring interconnect
srun: error: task 187 launch failed: Error configuring interconnect
srun: error: task 188 launch failed: Error configuring interconnect
srun: error: task 189 launch failed: Error configuring interconnect
srun: error: task 190 launch failed: Error configuring interconnect
srun: error: task 191 launch failed: Error configuring interconnect
srun: error: task 192 launch failed: Error configuring interconnect
srun: error: task 193 launch failed: Error configuring interconnect
srun: error: task 194 launch failed: Error configuring interconnect
srun: error: task 195 launch failed: Error configuring interconnect
srun: error: task 196 launch failed: Error configuring interconnect
srun: error: task 197 launch failed: Error configuring interconnect
srun: error: task 198 launch failed: Error configuring interconnect
srun: error: task 199 launch failed: Error configuring interconnect
srun: error: task 200 launch failed: Error configuring interconnect
srun: error: task 201 launch failed: Error configuring interconnect
srun: error: task 202 launch failed: Error configuring interconnect
srun: error: task 203 launch failed: Error configuring interconnect
srun: error: task 204 launch failed: Error configuring interconnect
srun: error: task 205 launch failed: Error configuring interconnect
srun: error: task 206 launch failed: Error configuring interconnect
srun: error: task 207 launch failed: Error configuring interconnect
srun: error: task 208 launch failed: Error configuring interconnect
srun: error: task 209 launch failed: Error configuring interconnect
srun: error: task 210 launch failed: Error configuring interconnect
srun: error: task 211 launch failed: Error configuring interconnect
srun: error: task 212 launch failed: Error configuring interconnect
srun: error: task 213 launch failed: Error configuring interconnect
srun: error: task 214 launch failed: Error configuring interconnect
srun: error: task 215 launch failed: Error configuring interconnect
srun: error: task 216 launch failed: Error configuring interconnect
srun: error: task 217 launch failed: Error configuring interconnect
srun: error: task 218 launch failed: Error configuring interconnect
srun: error: task 219 launch failed: Error configuring interconnect
srun: error: task 220 launch failed: Error configuring interconnect
srun: error: task 221 launch failed: Error configuring interconnect
srun: error: task 222 launch failed: Error configuring interconnect
srun: error: task 223 launch failed: Error configuring interconnect
srun: error: task 224 launch failed: Error configuring interconnect
srun: error: task 225 launch failed: Error configuring interconnect
srun: error: task 226 launch failed: Error configuring interconnect
srun: error: task 227 launch failed: Error configuring interconnect
srun: error: task 228 launch failed: Error configuring interconnect
srun: error: task 229 launch failed: Error configuring interconnect
srun: error: task 230 launch failed: Error configuring interconnect
srun: error: task 231 launch failed: Error configuring interconnect
srun: error: task 232 launch failed: Error configuring interconnect
srun: error: task 233 launch failed: Error configuring interconnect
srun: error: task 234 launch failed: Error configuring interconnect
srun: error: task 235 launch failed: Error configuring interconnect
srun: error: task 236 launch failed: Error configuring interconnect
srun: error: task 237 launch failed: Error configuring interconnect
srun: error: task 238 launch failed: Error configuring interconnect
srun: error: task 239 launch failed: Error configuring interconnect
srun: error: task 240 launch failed: Error configuring interconnect
srun: error: task 241 launch failed: Error configuring interconnect
srun: error: task 242 launch failed: Error configuring interconnect
srun: error: task 243 launch failed: Error configuring interconnect
srun: error: task 244 launch failed: Error configuring interconnect
srun: error: task 245 launch failed: Error configuring interconnect
srun: error: task 246 launch failed: Error configuring interconnect
srun: error: task 247 launch failed: Error configuring interconnect
srun: error: task 248 launch failed: Error configuring interconnect
srun: error: task 249 launch failed: Error configuring interconnect
srun: error: task 250 launch failed: Error configuring interconnect
srun: error: task 251 launch failed: Error configuring interconnect
srun: error: task 252 launch failed: Error configuring interconnect
srun: error: task 253 launch failed: Error configuring interconnect
srun: error: task 254 launch failed: Error configuring interconnect
srun: error: task 255 launch failed: Error configuring interconnect
Sat May 27 03:24:14 2023: [PE_1152]:inet_connect:inet_connect: connect from nid001747 to nid001112 failed after 300 attempts
Sat May 27 03:24:14 2023: [PE_1152]:conn_to_controller:inet_connect failed
Sat May 27 03:24:14 2023: [PE_1152]:control_nets_join:_pmi_inet_setup (full) returned -1
MPICH ERROR [Rank 0] [job id unknown] [Sat May 27 03:24:14 2023] [nid001747] - Abort(1091855) (rank 0 in comm 0): Fatal error in PMPI_Init: Other MPI error, error stack:
MPIR_Init_thread(170): 
MPID_Init(441).......: 
MPIR_pmi_init(110)...: PMI_Init returned 1

aborting job:
Fatal error in PMPI_Init: Other MPI error, error stack:
MPIR_Init_thread(170): 
MPID_Init(441).......: 
MPIR_pmi_init(110)...: PMI_Init returned 1
Sat May 27 03:24:14 2023: [PE_3328]:inet_connect:inet_connect: connect from nid001950 to nid001112 failed after 300 attempts
Sat May 27 03:24:14 2023: [PE_3328]:conn_to_controller:inet_connect failed
Sat May 27 03:24:14 2023: [PE_3328]:control_nets_join:_pmi_inet_setup (full) returned -1
MPICH ERROR [Rank 0] [job id unknown] [Sat May 27 03:24:14 2023] [nid001950] - Abort(1091855) (rank 0 in comm 0): Fatal error in PMPI_Init: Other MPI error, error stack:
MPIR_Init_thread(170): 
MPID_Init(441).......: 
MPIR_pmi_init(110)...: PMI_Init returned 1

aborting job:
Fatal error in PMPI_Init: Other MPI error, error stack:
MPIR_Init_thread(170): 
MPID_Init(441).......: 
MPIR_pmi_init(110)...: PMI_Init returned 1
Sat May 27 03:24:14 2023: [PE_1280]:inet_connect:inet_connect: connect from nid001748 to nid001112 failed after 300 attempts
Sat May 27 03:24:14 2023: [PE_1280]:conn_to_controller:inet_connect failed
Sat May 27 03:24:14 2023: [PE_1280]:control_nets_join:_pmi_inet_setup (full) returned -1
MPICH ERROR [Rank 0] [job id unknown] [Sat May 27 03:24:14 2023] [nid001748] - Abort(1091855) (rank 0 in comm 0): Fatal error in PMPI_Init: Other MPI error, error stack:
MPIR_Init_thread(170): 
MPID_Init(441).......: 
MPIR_pmi_init(110)...: PMI_Init returned 1

aborting job:
Fatal error in PMPI_Init: Other MPI error, error stack:
MPIR_Init_thread(170): 
MPID_Init(441).......: 
MPIR_pmi_init(110)...: PMI_Init returned 1
Sat May 27 03:24:14 2023: [PE_1408]:inet_connect:inet_connect: connect from nid001749 to nid001112 failed after 300 attempts
Sat May 27 03:24:14 2023: [PE_1408]:conn_to_controller:inet_connect failed
Sat May 27 03:24:14 2023: [PE_1408]:control_nets_join:_pmi_inet_setup (full) returned -1
MPICH ERROR [Rank 0] [job id unknown] [Sat May 27 03:24:14 2023] [nid001749] - Abort(1091855) (rank 0 in comm 0): Fatal error in PMPI_Init: Other MPI error, error stack:
MPIR_Init_thread(170): 
MPID_Init(441).......: 
MPIR_pmi_init(110)...: PMI_Init returned 1

aborting job:
Fatal error in PMPI_Init: Other MPI error, error stack:
MPIR_Init_thread(170): 
MPID_Init(441).......: 
MPIR_pmi_init(110)...: PMI_Init returned 1
Sat May 27 03:24:14 2023: [PE_1536]:inet_connect:inet_connect: connect from nid001750 to nid001112 failed after 300 attempts
Sat May 27 03:24:14 2023: [PE_1536]:conn_to_controller:inet_connect failed
Sat May 27 03:24:14 2023: [PE_1536]:control_nets_join:_pmi_inet_setup (full) returned -1
MPICH ERROR [Rank 0] [job id unknown] [Sat May 27 03:24:14 2023] [nid001750] - Abort(1091855) (rank 0 in comm 0): Fatal error in PMPI_Init: Other MPI error, error stack:
MPIR_Init_thread(170): 
MPID_Init(441).......: 
MPIR_pmi_init(110)...: PMI_Init returned 1

aborting job:
Fatal error in PMPI_Init: Other MPI error, error stack:
MPIR_Init_thread(170): 
MPID_Init(441).......: 
MPIR_pmi_init(110)...: PMI_Init returned 1
Sat May 27 03:24:14 2023: [PE_2304]:inet_connect:inet_connect: connect from nid001756 to nid001112 failed after 300 attempts
Sat May 27 03:24:14 2023: [PE_2304]:conn_to_controller:inet_connect failed
Sat May 27 03:24:14 2023: [PE_2304]:control_nets_join:_pmi_inet_setup (full) returned -1
MPICH ERROR [Rank 0] [job id unknown] [Sat May 27 03:24:14 2023] [nid001756] - Abort(1091855) (rank 0 in comm 0): Fatal error in PMPI_Init: Other MPI error, error stack:
MPIR_Init_thread(170): 
MPID_Init(441).......: 
MPIR_pmi_init(110)...: PMI_Init returned 1

aborting job:
Fatal error in PMPI_Init: Other MPI error, error stack:
MPIR_Init_thread(170): 
MPID_Init(441).......: 
MPIR_pmi_init(110)...: PMI_Init returned 1
Sat May 27 03:24:14 2023: [PE_1920]:inet_connect:inet_connect: connect from nid001753 to nid001112 failed after 300 attempts
Sat May 27 03:24:14 2023: [PE_1920]:conn_to_controller:inet_connect failed
Sat May 27 03:24:14 2023: [PE_1920]:control_nets_join:_pmi_inet_setup (full) returned -1
MPICH ERROR [Rank 0] [job id unknown] [Sat May 27 03:24:14 2023] [nid001753] - Abort(1091855) (rank 0 in comm 0): Fatal error in PMPI_Init: Other MPI error, error stack:
MPIR_Init_thread(170): 
MPID_Init(441).......: 
MPIR_pmi_init(110)...: PMI_Init returned 1

aborting job:
Fatal error in PMPI_Init: Other MPI error, error stack:
MPIR_Init_thread(170): 
MPID_Init(441).......: 
MPIR_pmi_init(110)...: PMI_Init returned 1
Sat May 27 03:24:14 2023: [PE_2176]:inet_connect:inet_connect: connect from nid001755 to nid001112 failed after 300 attempts
Sat May 27 03:24:14 2023: [PE_2176]:conn_to_controller:inet_connect failed
Sat May 27 03:24:14 2023: [PE_2176]:control_nets_join:_pmi_inet_setup (full) returned -1
MPICH ERROR [Rank 0] [job id unknown] [Sat May 27 03:24:14 2023] [nid001755] - Abort(1091855) (rank 0 in comm 0): Fatal error in PMPI_Init: Other MPI error, error stack:
MPIR_Init_thread(170): 
MPID_Init(441).......: 
MPIR_pmi_init(110)...: PMI_Init returned 1

aborting job:
Fatal error in PMPI_Init: Other MPI error, error stack:
MPIR_Init_thread(170): 
MPID_Init(441).......: 
MPIR_pmi_init(110)...: PMI_Init returned 1
Sat May 27 03:24:14 2023: [PE_768]:inet_connect:inet_connect: connect from nid001118 to nid001112 failed after 300 attempts
Sat May 27 03:24:14 2023: [PE_768]:conn_to_controller:inet_connect failed
Sat May 27 03:24:14 2023: [PE_768]:control_nets_join:_pmi_inet_setup (full) returned -1
MPICH ERROR [Rank 0] [job id unknown] [Sat May 27 03:24:14 2023] [nid001118] - Abort(1091855) (rank 0 in comm 0): Fatal error in PMPI_Init: Other MPI error, error stack:
MPIR_Init_thread(170): 
MPID_Init(441).......: 
MPIR_pmi_init(110)...: PMI_Init returned 1

aborting job:
Fatal error in PMPI_Init: Other MPI error, error stack:
MPIR_Init_thread(170): 
MPID_Init(441).......: 
MPIR_pmi_init(110)...: PMI_Init returned 1
Sat May 27 03:24:14 2023: [PE_2560]:inet_connect:inet_connect: connect from nid001758 to nid001112 failed after 300 attempts
Sat May 27 03:24:14 2023: [PE_2560]:conn_to_controller:inet_connect failed
Sat May 27 03:24:14 2023: [PE_2560]:control_nets_join:_pmi_inet_setup (full) returned -1
MPICH ERROR [Rank 0] [job id unknown] [Sat May 27 03:24:14 2023] [nid001758] - Abort(1091855) (rank 0 in comm 0): Fatal error in PMPI_Init: Other MPI error, error stack:
MPIR_Init_thread(170): 
MPID_Init(441).......: 
MPIR_pmi_init(110)...: PMI_Init returned 1

aborting job:
Fatal error in PMPI_Init: Other MPI error, error stack:
MPIR_Init_thread(170): 
MPID_Init(441).......: 
MPIR_pmi_init(110)...: PMI_Init returned 1
Sat May 27 03:24:14 2023: [PE_3200]:inet_connect:inet_connect: connect from nid001949 to nid001112 failed after 300 attempts
Sat May 27 03:24:14 2023: [PE_3200]:conn_to_controller:inet_connect failed
Sat May 27 03:24:14 2023: [PE_3200]:control_nets_join:_pmi_inet_setup (full) returned -1
MPICH ERROR [Rank 0] [job id unknown] [Sat May 27 03:24:14 2023] [nid001949] - Abort(1091855) (rank 0 in comm 0): Fatal error in PMPI_Init: Other MPI error, error stack:
MPIR_Init_thread(170): 
MPID_Init(441).......: 
MPIR_pmi_init(110)...: PMI_Init returned 1

aborting job:
Fatal error in PMPI_Init: Other MPI error, error stack:
MPIR_Init_thread(170): 
MPID_Init(441).......: 
MPIR_pmi_init(110)...: PMI_Init returned 1
Sat May 27 03:24:14 2023: [PE_3584]:inet_connect:inet_connect: connect from nid001952 to nid001112 failed after 300 attempts
Sat May 27 03:24:14 2023: [PE_3584]:conn_to_controller:inet_connect failed
Sat May 27 03:24:14 2023: [PE_3584]:control_nets_join:_pmi_inet_setup (full) returned -1
MPICH ERROR [Rank 0] [job id unknown] [Sat May 27 03:24:14 2023] [nid001952] - Abort(1091855) (rank 0 in comm 0): Fatal error in PMPI_Init: Other MPI error, error stack:
MPIR_Init_thread(170): 
MPID_Init(441).......: 
MPIR_pmi_init(110)...: PMI_Init returned 1

aborting job:
Fatal error in PMPI_Init: Other MPI error, error stack:
MPIR_Init_thread(170): 
MPID_Init(441).......: 
MPIR_pmi_init(110)...: PMI_Init returned 1
Sat May 27 03:24:14 2023: [PE_3456]:inet_connect:inet_connect: connect from nid001951 to nid001112 failed after 300 attempts
Sat May 27 03:24:14 2023: [PE_3456]:conn_to_controller:inet_connect failed
Sat May 27 03:24:14 2023: [PE_3456]:control_nets_join:_pmi_inet_setup (full) returned -1
MPICH ERROR [Rank 0] [job id unknown] [Sat May 27 03:24:14 2023] [nid001951] - Abort(1091855) (rank 0 in comm 0): Fatal error in PMPI_Init: Other MPI error, error stack:
MPIR_Init_thread(170): 
MPID_Init(441).......: 
MPIR_pmi_init(110)...: PMI_Init returned 1

aborting job:
Fatal error in PMPI_Init: Other MPI error, error stack:
MPIR_Init_thread(170): 
MPID_Init(441).......: 
MPIR_pmi_init(110)...: PMI_Init returned 1
Sat May 27 03:24:14 2023: [PE_3712]:inet_connect:inet_connect: connect from nid001953 to nid001112 failed after 300 attempts
Sat May 27 03:24:14 2023: [PE_3712]:conn_to_controller:inet_connect failed
Sat May 27 03:24:14 2023: [PE_3712]:control_nets_join:_pmi_inet_setup (full) returned -1
MPICH ERROR [Rank 0] [job id unknown] [Sat May 27 03:24:14 2023] [nid001953] - Abort(1091855) (rank 0 in comm 0): Fatal error in PMPI_Init: Other MPI error, error stack:
MPIR_Init_thread(170): 
MPID_Init(441).......: 
MPIR_pmi_init(110)...: PMI_Init returned 1

aborting job:
Fatal error in PMPI_Init: Other MPI error, error stack:
MPIR_Init_thread(170): 
MPID_Init(441).......: 
MPIR_pmi_init(110)...: PMI_Init returned 1
Sat May 27 03:24:14 2023: [PE_1664]:inet_connect:inet_connect: connect from nid001751 to nid001112 failed after 300 attempts
Sat May 27 03:24:14 2023: [PE_1664]:conn_to_controller:inet_connect failed
Sat May 27 03:24:14 2023: [PE_1664]:control_nets_join:_pmi_inet_setup (full) returned -1
MPICH ERROR [Rank 0] [job id unknown] [Sat May 27 03:24:14 2023] [nid001751] - Abort(1091855) (rank 0 in comm 0): Fatal error in PMPI_Init: Other MPI error, error stack:
MPIR_Init_thread(170): 
MPID_Init(441).......: 
MPIR_pmi_init(110)...: PMI_Init returned 1

aborting job:
Fatal error in PMPI_Init: Other MPI error, error stack:
MPIR_Init_thread(170): 
MPID_Init(441).......: 
MPIR_pmi_init(110)...: PMI_Init returned 1
Sat May 27 03:24:14 2023: [PE_2816]:inet_connect:inet_connect: connect from nid001946 to nid001112 failed after 300 attempts
Sat May 27 03:24:14 2023: [PE_2816]:conn_to_controller:inet_connect failed
Sat May 27 03:24:14 2023: [PE_2816]:control_nets_join:_pmi_inet_setup (full) returned -1
MPICH ERROR [Rank 0] [job id unknown] [Sat May 27 03:24:14 2023] [nid001946] - Abort(1091855) (rank 0 in comm 0): Fatal error in PMPI_Init: Other MPI error, error stack:
MPIR_Init_thread(170): 
MPID_Init(441).......: 
MPIR_pmi_init(110)...: PMI_Init returned 1

aborting job:
Fatal error in PMPI_Init: Other MPI error, error stack:
MPIR_Init_thread(170): 
MPID_Init(441).......: 
MPIR_pmi_init(110)...: PMI_Init returned 1
Sat May 27 03:24:14 2023: [PE_2688]:inet_connect:inet_connect: connect from nid001945 to nid001112 failed after 300 attempts
Sat May 27 03:24:14 2023: [PE_2688]:conn_to_controller:inet_connect failed
Sat May 27 03:24:14 2023: [PE_2688]:control_nets_join:_pmi_inet_setup (full) returned -1
MPICH ERROR [Rank 0] [job id unknown] [Sat May 27 03:24:14 2023] [nid001945] - Abort(1091855) (rank 0 in comm 0): Fatal error in PMPI_Init: Other MPI error, error stack:
MPIR_Init_thread(170): 
MPID_Init(441).......: 
MPIR_pmi_init(110)...: PMI_Init returned 1

aborting job:
Fatal error in PMPI_Init: Other MPI error, error stack:
MPIR_Init_thread(170): 
MPID_Init(441).......: 
MPIR_pmi_init(110)...: PMI_Init returned 1
Sat May 27 03:24:14 2023: [PE_1792]:inet_connect:inet_connect: connect from nid001752 to nid001112 failed after 300 attempts
Sat May 27 03:24:14 2023: [PE_1792]:conn_to_controller:inet_connect failed
Sat May 27 03:24:14 2023: [PE_1792]:control_nets_join:_pmi_inet_setup (full) returned -1
MPICH ERROR [Rank 0] [job id unknown] [Sat May 27 03:24:14 2023] [nid001752] - Abort(1091855) (rank 0 in comm 0): Fatal error in PMPI_Init: Other MPI error, error stack:
MPIR_Init_thread(170): 
MPID_Init(441).......: 
MPIR_pmi_init(110)...: PMI_Init returned 1

aborting job:
Fatal error in PMPI_Init: Other MPI error, error stack:
MPIR_Init_thread(170): 
MPID_Init(441).......: 
MPIR_pmi_init(110)...: PMI_Init returned 1
Sat May 27 03:24:14 2023: [PE_896]:inet_connect:inet_connect: connect from nid001119 to nid001112 failed after 300 attempts
Sat May 27 03:24:14 2023: [PE_896]:conn_to_controller:inet_connect failed
Sat May 27 03:24:14 2023: [PE_896]:control_nets_join:_pmi_inet_setup (full) returned -1
MPICH ERROR [Rank 0] [job id unknown] [Sat May 27 03:24:14 2023] [nid001119] - Abort(1091855) (rank 0 in comm 0): Fatal error in PMPI_Init: Other MPI error, error stack:
MPIR_Init_thread(170): 
MPID_Init(441).......: 
MPIR_pmi_init(110)...: PMI_Init returned 1

aborting job:
Fatal error in PMPI_Init: Other MPI error, error stack:
MPIR_Init_thread(170): 
MPID_Init(441).......: 
MPIR_pmi_init(110)...: PMI_Init returned 1
Sat May 27 03:24:14 2023: [PE_2048]:inet_connect:inet_connect: connect from nid001754 to nid001112 failed after 300 attempts
Sat May 27 03:24:14 2023: [PE_2048]:conn_to_controller:inet_connect failed
Sat May 27 03:24:14 2023: [PE_2048]:control_nets_join:_pmi_inet_setup (full) returned -1
MPICH ERROR [Rank 0] [job id unknown] [Sat May 27 03:24:14 2023] [nid001754] - Abort(1091855) (rank 0 in comm 0): Fatal error in PMPI_Init: Other MPI error, error stack:
MPIR_Init_thread(170): 
MPID_Init(441).......: 
MPIR_pmi_init(110)...: PMI_Init returned 1

aborting job:
Fatal error in PMPI_Init: Other MPI error, error stack:
MPIR_Init_thread(170): 
MPID_Init(441).......: 
MPIR_pmi_init(110)...: PMI_Init returned 1
Sat May 27 03:24:14 2023: [PE_3072]:inet_connect:inet_connect: connect from nid001948 to nid001112 failed after 300 attempts
Sat May 27 03:24:14 2023: [PE_3072]:conn_to_controller:inet_connect failed
Sat May 27 03:24:14 2023: [PE_3072]:control_nets_join:_pmi_inet_setup (full) returned -1
MPICH ERROR [Rank 0] [job id unknown] [Sat May 27 03:24:14 2023] [nid001948] - Abort(1091855) (rank 0 in comm 0): Fatal error in PMPI_Init: Other MPI error, error stack:
MPIR_Init_thread(170): 
MPID_Init(441).......: 
MPIR_pmi_init(110)...: PMI_Init returned 1

aborting job:
Fatal error in PMPI_Init: Other MPI error, error stack:
MPIR_Init_thread(170): 
MPID_Init(441).......: 
MPIR_pmi_init(110)...: PMI_Init returned 1
Sat May 27 03:24:14 2023: [PE_2432]:inet_connect:inet_connect: connect from nid001757 to nid001112 failed after 300 attempts
Sat May 27 03:24:14 2023: [PE_2432]:conn_to_controller:inet_connect failed
Sat May 27 03:24:14 2023: [PE_2432]:control_nets_join:_pmi_inet_setup (full) returned -1
MPICH ERROR [Rank 0] [job id unknown] [Sat May 27 03:24:14 2023] [nid001757] - Abort(1091855) (rank 0 in comm 0): Fatal error in PMPI_Init: Other MPI error, error stack:
MPIR_Init_thread(170): 
MPID_Init(441).......: 
MPIR_pmi_init(110)...: PMI_Init returned 1

aborting job:
Fatal error in PMPI_Init: Other MPI error, error stack:
MPIR_Init_thread(170): 
MPID_Init(441).......: 
MPIR_pmi_init(110)...: PMI_Init returned 1
Sat May 27 03:24:14 2023: [PE_3968]:inet_connect:inet_connect: connect from nid001955 to nid001112 failed after 300 attempts
Sat May 27 03:24:14 2023: [PE_3968]:conn_to_controller:inet_connect failed
Sat May 27 03:24:14 2023: [PE_3968]:control_nets_join:_pmi_inet_setup (full) returned -1
MPICH ERROR [Rank 0] [job id unknown] [Sat May 27 03:24:14 2023] [nid001955] - Abort(1091855) (rank 0 in comm 0): Fatal error in PMPI_Init: Other MPI error, error stack:
MPIR_Init_thread(170): 
MPID_Init(441).......: 
MPIR_pmi_init(110)...: PMI_Init returned 1

aborting job:
Fatal error in PMPI_Init: Other MPI error, error stack:
MPIR_Init_thread(170): 
MPID_Init(441).......: 
MPIR_pmi_init(110)...: PMI_Init returned 1
Sat May 27 03:24:15 2023: [PE_3840]:inet_connect:inet_connect: connect from nid001954 to nid001112 failed after 300 attempts
Sat May 27 03:24:15 2023: [PE_3840]:conn_to_controller:inet_connect failed
Sat May 27 03:24:15 2023: [PE_3840]:control_nets_join:_pmi_inet_setup (full) returned -1
MPICH ERROR [Rank 0] [job id unknown] [Sat May 27 03:24:15 2023] [nid001954] - Abort(1091855) (rank 0 in comm 0): Fatal error in PMPI_Init: Other MPI error, error stack:
MPIR_Init_thread(170): 
MPID_Init(441).......: 
MPIR_pmi_init(110)...: PMI_Init returned 1

aborting job:
Fatal error in PMPI_Init: Other MPI error, error stack:
MPIR_Init_thread(170): 
MPID_Init(441).......: 
MPIR_pmi_init(110)...: PMI_Init returned 1
srun: error: nid001747: task 1152: Exited with exit code 255
srun: launch/slurm: _step_signal: Terminating StepId=3593617.0
srun: error: nid001748: task 1280: Exited with exit code 255
srun: error: nid001749: task 1408: Exited with exit code 255
srun: error: nid001950: task 3328: Exited with exit code 255
srun: error: nid001750: task 1536: Exited with exit code 255
srun: error: nid001753: task 1920: Exited with exit code 255
srun: error: nid001755: task 2176: Exited with exit code 255
srun: error: nid001118: task 768: Exited with exit code 255
srun: error: nid001758: task 2560: Exited with exit code 255
srun: error: nid001756: task 2304: Exited with exit code 255
srun: error: nid001949: task 3200: Exited with exit code 255
srun: error: nid001952: task 3584: Exited with exit code 255
srun: error: nid001951: task 3456: Exited with exit code 255
srun: error: nid001953: task 3712: Exited with exit code 255
Sat May 27 03:24:15 2023: [PE_2944]:inet_connect:inet_connect: connect from nid001947 to nid001112 failed after 300 attempts
Sat May 27 03:24:15 2023: [PE_2944]:conn_to_controller:inet_connect failed
Sat May 27 03:24:15 2023: [PE_2944]:control_nets_join:_pmi_inet_setup (full) returned -1
MPICH ERROR [Rank 0] [job id unknown] [Sat May 27 03:24:15 2023] [nid001947] - Abort(1091855) (rank 0 in comm 0): Fatal error in PMPI_Init: Other MPI error, error stack:
MPIR_Init_thread(170): 
MPID_Init(441).......: 
MPIR_pmi_init(110)...: PMI_Init returned 1

aborting job:
Fatal error in PMPI_Init: Other MPI error, error stack:
MPIR_Init_thread(170): 
MPID_Init(441).......: 
MPIR_pmi_init(110)...: PMI_Init returned 1
srun: error: nid001946: task 2816: Exited with exit code 255
srun: error: nid001751: task 1664: Exited with exit code 255
srun: error: nid001945: task 2688: Exited with exit code 255
srun: error: nid001752: task 1792: Exited with exit code 255
srun: error: nid001119: task 896: Exited with exit code 255
srun: error: nid001754: task 2048: Exited with exit code 255
srun: error: nid001948: task 3072: Exited with exit code 255
srun: error: nid001757: task 2432: Exited with exit code 255
srun: error: nid001955: task 3968: Exited with exit code 255
srun: error: nid001954: task 3840: Exited with exit code 255
srun: error: nid001947: task 2944: Exited with exit code 255
srun: error: nid001947: tasks 2945-3071: Terminated
srun: error: nid001118: tasks 769-895: Terminated
srun: error: nid001119: tasks 897-1023: Terminated
srun: error: nid001747: tasks 1153-1279: Terminated
srun: error: nid001748: tasks 1281-1407: Terminated
srun: error: nid001749: tasks 1409-1535: Terminated
srun: error: nid001750: tasks 1537-1663: Terminated
srun: error: nid001752: tasks 1793-1919: Terminated
srun: error: nid001754: tasks 2049-2175: Terminated
srun: error: nid001751: tasks 1665-1791: Terminated
srun: error: nid001753: tasks 1921-2047: Terminated
srun: error: nid001756: tasks 2305-2431: Terminated
srun: error: nid001755: tasks 2177-2303: Terminated
srun: error: nid001758: tasks 2561-2687: Terminated
srun: error: nid001757: tasks 2433-2559: Terminated
srun: error: nid001945: tasks 2689-2815: Terminated
srun: error: nid001948: tasks 3073-3199: Terminated
srun: error: nid001946: tasks 2817-2943: Terminated
srun: error: nid001949: tasks 3201-3327: Terminated
srun: error: nid001954: tasks 3841-3967: Terminated
srun: error: nid001951: tasks 3457-3583: Terminated
srun: error: nid001950: tasks 3329-3455: Terminated
srun: error: nid001952: tasks 3585-3711: Terminated
srun: error: nid001955: tasks 3969-4095: Terminated
srun: error: nid001953: tasks 3713-3839: Terminated
srun: Force Terminated StepId=3593617.0
