MPICH ERROR [Rank 0] [job id 3459986.0] [Thu May  4 16:29:31 2023] [nid001013] - Abort(1) (rank 0 in comm 0): application called MPI_Abort(MPI_COMM_WORLD, 1) - process 0

aborting job:
application called MPI_Abort(MPI_COMM_WORLD, 1) - process 0
srun: error: nid001013: task 0: Exited with exit code 255
srun: launch/slurm: _step_signal: Terminating StepId=3459986.0
slurmstepd: error: *** STEP 3459986.0 ON nid001013 CANCELLED AT 2023-05-04T16:29:31 ***
srun: error: nid001023: tasks 640-767: Terminated
srun: error: nid001022: tasks 512-639: Terminated
srun: error: nid001014: tasks 128-255: Terminated
srun: error: nid001015: tasks 256-383: Terminated
srun: error: nid001021: tasks 384-511: Terminated
srun: error: nid001136: tasks 1408-1535: Terminated
srun: error: nid001156: tasks 2048-2175: Terminated
srun: error: nid001123: tasks 1280-1407: Terminated
srun: error: nid001013: tasks 1-127: Terminated
srun: error: nid001152: tasks 1664-1791: Terminated
srun: error: nid001107: tasks 896-1023: Terminated
srun: error: nid001099: tasks 768-895: Terminated
srun: error: nid001137: tasks 1536-1663: Terminated
srun: error: nid001157: tasks 2176-2303: Terminated
srun: error: nid001111: tasks 1152-1279: Terminated
srun: error: nid001153: tasks 1792-1919: Terminated
srun: error: nid001110: tasks 1024-1151: Terminated
srun: error: nid001158: tasks 2304-2431: Terminated
srun: error: nid001293: tasks 2944-3071: Terminated
srun: error: nid001301: tasks 3200-3327: Terminated
srun: error: nid001155: tasks 1920-2047: Terminated
srun: error: nid001211: tasks 2432-2559: Terminated
srun: error: nid001305: tasks 3456-3583: Terminated
srun: error: nid001247: tasks 2688-2815: Terminated
srun: error: nid001476: tasks 3584-3711: Terminated
srun: error: nid001279: tasks 2816-2943: Terminated
srun: error: nid001234: tasks 2560-2687: Terminated
srun: error: nid001300: tasks 3072-3199: Terminated
srun: error: nid001304: tasks 3328-3455: Terminated
srun: error: nid001901: tasks 3968-4095: Terminated
srun: error: nid001900: tasks 3840-3967: Terminated
srun: error: nid001477: tasks 3712-3839: Terminated
srun: Force Terminated StepId=3459986.0
