srun ./qcd1 -i input/qcd1t016.in -c D400t016n2 -a -noloc
srun: Job step aborted: Waiting up to 32 seconds for job step to finish.
slurmstepd: error: *** STEP 3594856.0 ON nid001925 CANCELLED AT 2023-05-28T15:55:45 DUE TO TIME LIMIT ***
slurmstepd: error: *** JOB 3594856 ON nid001925 CANCELLED AT 2023-05-28T15:55:45 DUE TO TIME LIMIT ***
